…
Extra examples : Non spatial > data exploration `tidy-style`
========================================================


```r
# summarize
df %>% 
  group_by(maand,var1) %>%
  summarize(median_var2=median(var2))
```

```
# A tibble: 48 x 3
# Groups:   maand [?]
   maand var1  median_var2
   <chr> <fct>       <dbl>
 1 01    A           0.573
 2 01    B           0.531
 3 01    C           0.485
 4 01    D           0.467
 5 02    A           0.555
 6 02    B           0.484
 7 02    C           0.483
 8 02    D           0.481
 9 03    A           0.472
10 03    B           0.526
# ... with 38 more rows
```
…
